Traceback (most recent call last):
  File "/home/m/env_jb1/lib/python3.8/site-packages/jupyter_cache/executors/utils.py", line 51, in single_nb_execution
    executenb(
  File "/home/m/env_jb1/lib/python3.8/site-packages/nbclient/client.py", line 1112, in execute
    return NotebookClient(nb=nb, resources=resources, km=km, **kwargs).execute()
  File "/home/m/env_jb1/lib/python3.8/site-packages/nbclient/util.py", line 74, in wrapped
    return just_run(coro(*args, **kwargs))
  File "/home/m/env_jb1/lib/python3.8/site-packages/nbclient/util.py", line 53, in just_run
    return loop.run_until_complete(coro)
  File "/usr/lib/python3.8/asyncio/base_events.py", line 616, in run_until_complete
    return future.result()
  File "/home/m/env_jb1/lib/python3.8/site-packages/nbclient/client.py", line 553, in async_execute
    await self.async_execute_cell(
  File "/home/m/env_jb1/lib/python3.8/site-packages/nbclient/client.py", line 857, in async_execute_cell
    self._check_raise_for_error(cell, exec_reply)
  File "/home/m/env_jb1/lib/python3.8/site-packages/nbclient/client.py", line 760, in _check_raise_for_error
    raise CellExecutionError.from_cell_and_msg(cell, exec_reply_content)
nbclient.exceptions.CellExecutionError: An error occurred while executing the following cell:
------------------
# HIDE CODE
_, all_psth = deps.get_psth(spikes=spykes_times,
                       spykes_df=events_df,
                       event='trial_start', 
                       conditions=[],
                       window=[0, 2500],  
                       bin_size=10,
                       )
all_psth['conditions']=''
# Make psth
xar=deps.spyke2xar(all_psth,
                   spykes_times['brain_group'].values,  
                   spykes_times['brain_group_color'].values)

# Cluster
df,df_tidy,index=deps.cluster(xar,plotose=False,thr_n_spikes=0) 
------------------

[0;31m---------------------------------------------------------------------------[0m
[0;31mTerminatedWorkerError[0m                     Traceback (most recent call last)
[0;32m<ipython-input-2-eed50b84ee13>[0m in [0;36m<module>[0;34m[0m
[1;32m      1[0m [0;31m# HIDE CODE[0m[0;34m[0m[0;34m[0m[0;34m[0m[0m
[0;32m----> 2[0;31m _, all_psth = deps.get_psth(spikes=spykes_times,
[0m[1;32m      3[0m                        [0mspykes_df[0m[0;34m=[0m[0mevents_df[0m[0;34m,[0m[0;34m[0m[0;34m[0m[0m
[1;32m      4[0m                        [0mevent[0m[0;34m=[0m[0;34m'trial_start'[0m[0;34m,[0m[0;34m[0m[0;34m[0m[0m
[1;32m      5[0m                        [0mconditions[0m[0;34m=[0m[0;34m[[0m[0;34m][0m[0;34m,[0m[0;34m[0m[0;34m[0m[0m

[0;32m~/mmy/data_steinmetz2/steinmetz_book/deps.py[0m in [0;36mget_psth[0;34m(spikes, spykes_df, event, window, bin_size, fr_thr, conditions, **kwargs)[0m
[1;32m    165[0m     [0;31m# calculate psth[0m[0;34m[0m[0;34m[0m[0;34m[0m[0m
[1;32m    166[0m     [0;31m# TODO anything beyond trial_start+2.5 is nan[0m[0;34m[0m[0;34m[0m[0;34m[0m[0m
[0;32m--> 167[0;31m     mean_psth = pop.get_all_psth(event=event, df=spykes_df, window=window, binsize=bin_size, plot=False,
[0m[1;32m    168[0m                                  conditions=conditions, **kwargs)
[1;32m    169[0m     [0;31m# Check for sanity[0m[0;34m[0m[0;34m[0m[0;34m[0m[0m

[0;32m~/.local/lib/python3.8/site-packages/spykes/plot/popvis.py[0m in [0;36mget_all_psth[0;34m(self, event, df, conditions, window, binsize, conditions_names, plot, colors, use_parallel)[0m
[1;32m     83[0m         [0;32mif[0m [0muse_parallel[0m[0;34m:[0m[0;34m[0m[0;34m[0m[0m
[1;32m     84[0m             [0;32mfrom[0m [0mjoblib[0m [0;32mimport[0m [0mParallel[0m[0;34m,[0m [0mdelayed[0m[0;34m[0m[0;34m[0m[0m
[0;32m---> 85[0;31m             psths = Parallel(n_jobs=-1)(delayed(neuron.get_psth)(
[0m[1;32m     86[0m                 [0mevent[0m[0;34m=[0m[0mevent[0m[0;34m,[0m[0;34m[0m[0;34m[0m[0m
[1;32m     87[0m                 [0mdf[0m[0;34m=[0m[0mdf[0m[0;34m,[0m[0;34m[0m[0;34m[0m[0m

[0;32m~/.local/lib/python3.8/site-packages/joblib/parallel.py[0m in [0;36m__call__[0;34m(self, iterable)[0m
[1;32m   1052[0m [0;34m[0m[0m
[1;32m   1053[0m             [0;32mwith[0m [0mself[0m[0;34m.[0m[0m_backend[0m[0;34m.[0m[0mretrieval_context[0m[0;34m([0m[0;34m)[0m[0;34m:[0m[0;34m[0m[0;34m[0m[0m
[0;32m-> 1054[0;31m                 [0mself[0m[0;34m.[0m[0mretrieve[0m[0;34m([0m[0;34m)[0m[0;34m[0m[0;34m[0m[0m
[0m[1;32m   1055[0m             [0;31m# Make sure that we get a last message telling us we are done[0m[0;34m[0m[0;34m[0m[0;34m[0m[0m
[1;32m   1056[0m             [0melapsed_time[0m [0;34m=[0m [0mtime[0m[0;34m.[0m[0mtime[0m[0;34m([0m[0;34m)[0m [0;34m-[0m [0mself[0m[0;34m.[0m[0m_start_time[0m[0;34m[0m[0;34m[0m[0m

[0;32m~/.local/lib/python3.8/site-packages/joblib/parallel.py[0m in [0;36mretrieve[0;34m(self)[0m
[1;32m    931[0m             [0;32mtry[0m[0;34m:[0m[0;34m[0m[0;34m[0m[0m
[1;32m    932[0m                 [0;32mif[0m [0mgetattr[0m[0;34m([0m[0mself[0m[0;34m.[0m[0m_backend[0m[0;34m,[0m [0;34m'supports_timeout'[0m[0;34m,[0m [0;32mFalse[0m[0;34m)[0m[0;34m:[0m[0;34m[0m[0;34m[0m[0m
[0;32m--> 933[0;31m                     [0mself[0m[0;34m.[0m[0m_output[0m[0;34m.[0m[0mextend[0m[0;34m([0m[0mjob[0m[0;34m.[0m[0mget[0m[0;34m([0m[0mtimeout[0m[0;34m=[0m[0mself[0m[0;34m.[0m[0mtimeout[0m[0;34m)[0m[0;34m)[0m[0;34m[0m[0;34m[0m[0m
[0m[1;32m    934[0m                 [0;32melse[0m[0;34m:[0m[0;34m[0m[0;34m[0m[0m
[1;32m    935[0m                     [0mself[0m[0;34m.[0m[0m_output[0m[0;34m.[0m[0mextend[0m[0;34m([0m[0mjob[0m[0;34m.[0m[0mget[0m[0;34m([0m[0;34m)[0m[0;34m)[0m[0;34m[0m[0;34m[0m[0m

[0;32m~/.local/lib/python3.8/site-packages/joblib/_parallel_backends.py[0m in [0;36mwrap_future_result[0;34m(future, timeout)[0m
[1;32m    540[0m         AsyncResults.get from multiprocessing."""
[1;32m    541[0m         [0;32mtry[0m[0;34m:[0m[0;34m[0m[0;34m[0m[0m
[0;32m--> 542[0;31m             [0;32mreturn[0m [0mfuture[0m[0;34m.[0m[0mresult[0m[0;34m([0m[0mtimeout[0m[0;34m=[0m[0mtimeout[0m[0;34m)[0m[0;34m[0m[0;34m[0m[0m
[0m[1;32m    543[0m         [0;32mexcept[0m [0mCfTimeoutError[0m [0;32mas[0m [0me[0m[0;34m:[0m[0;34m[0m[0;34m[0m[0m
[1;32m    544[0m             [0;32mraise[0m [0mTimeoutError[0m [0;32mfrom[0m [0me[0m[0;34m[0m[0;34m[0m[0m

[0;32m~/anaconda3/envs/simple/lib/python3.8/concurrent/futures/_base.py[0m in [0;36mresult[0;34m(self, timeout)[0m
[1;32m    437[0m                 [0;32mraise[0m [0mCancelledError[0m[0;34m([0m[0;34m)[0m[0;34m[0m[0;34m[0m[0m
[1;32m    438[0m             [0;32melif[0m [0mself[0m[0;34m.[0m[0m_state[0m [0;34m==[0m [0mFINISHED[0m[0;34m:[0m[0;34m[0m[0;34m[0m[0m
[0;32m--> 439[0;31m                 [0;32mreturn[0m [0mself[0m[0;34m.[0m[0m__get_result[0m[0;34m([0m[0;34m)[0m[0;34m[0m[0;34m[0m[0m
[0m[1;32m    440[0m             [0;32melse[0m[0;34m:[0m[0;34m[0m[0;34m[0m[0m
[1;32m    441[0m                 [0;32mraise[0m [0mTimeoutError[0m[0;34m([0m[0;34m)[0m[0;34m[0m[0;34m[0m[0m

[0;32m~/anaconda3/envs/simple/lib/python3.8/concurrent/futures/_base.py[0m in [0;36m__get_result[0;34m(self)[0m
[1;32m    386[0m     [0;32mdef[0m [0m__get_result[0m[0;34m([0m[0mself[0m[0;34m)[0m[0;34m:[0m[0;34m[0m[0;34m[0m[0m
[1;32m    387[0m         [0;32mif[0m [0mself[0m[0;34m.[0m[0m_exception[0m[0;34m:[0m[0;34m[0m[0;34m[0m[0m
[0;32m--> 388[0;31m             [0;32mraise[0m [0mself[0m[0;34m.[0m[0m_exception[0m[0;34m[0m[0;34m[0m[0m
[0m[1;32m    389[0m         [0;32melse[0m[0;34m:[0m[0;34m[0m[0;34m[0m[0m
[1;32m    390[0m             [0;32mreturn[0m [0mself[0m[0;34m.[0m[0m_result[0m[0;34m[0m[0;34m[0m[0m

[0;32m~/.local/lib/python3.8/site-packages/joblib/externals/loky/_base.py[0m in [0;36m_invoke_callbacks[0;34m(self)[0m
[1;32m    623[0m         [0;32mfor[0m [0mcallback[0m [0;32min[0m [0mself[0m[0;34m.[0m[0m_done_callbacks[0m[0;34m:[0m[0;34m[0m[0;34m[0m[0m
[1;32m    624[0m             [0;32mtry[0m[0;34m:[0m[0;34m[0m[0;34m[0m[0m
[0;32m--> 625[0;31m                 [0mcallback[0m[0;34m([0m[0mself[0m[0;34m)[0m[0;34m[0m[0;34m[0m[0m
[0m[1;32m    626[0m             [0;32mexcept[0m [0mBaseException[0m[0;34m:[0m[0;34m[0m[0;34m[0m[0m
[1;32m    627[0m                 [0mLOGGER[0m[0;34m.[0m[0mexception[0m[0;34m([0m[0;34m'exception calling callback for %r'[0m[0;34m,[0m [0mself[0m[0;34m)[0m[0;34m[0m[0;34m[0m[0m

[0;32m~/.local/lib/python3.8/site-packages/joblib/parallel.py[0m in [0;36m__call__[0;34m(self, out)[0m
[1;32m    357[0m         [0;32mwith[0m [0mself[0m[0;34m.[0m[0mparallel[0m[0;34m.[0m[0m_lock[0m[0;34m:[0m[0;34m[0m[0;34m[0m[0m
[1;32m    358[0m             [0;32mif[0m [0mself[0m[0;34m.[0m[0mparallel[0m[0;34m.[0m[0m_original_iterator[0m [0;32mis[0m [0;32mnot[0m [0;32mNone[0m[0;34m:[0m[0;34m[0m[0;34m[0m[0m
[0;32m--> 359[0;31m                 [0mself[0m[0;34m.[0m[0mparallel[0m[0;34m.[0m[0mdispatch_next[0m[0;34m([0m[0;34m)[0m[0;34m[0m[0;34m[0m[0m
[0m[1;32m    360[0m [0;34m[0m[0m
[1;32m    361[0m [0;34m[0m[0m

[0;32m~/.local/lib/python3.8/site-packages/joblib/parallel.py[0m in [0;36mdispatch_next[0;34m(self)[0m
[1;32m    790[0m [0;34m[0m[0m
[1;32m    791[0m         """
[0;32m--> 792[0;31m         [0;32mif[0m [0;32mnot[0m [0mself[0m[0;34m.[0m[0mdispatch_one_batch[0m[0;34m([0m[0mself[0m[0;34m.[0m[0m_original_iterator[0m[0;34m)[0m[0;34m:[0m[0;34m[0m[0;34m[0m[0m
[0m[1;32m    793[0m             [0mself[0m[0;34m.[0m[0m_iterating[0m [0;34m=[0m [0;32mFalse[0m[0;34m[0m[0;34m[0m[0m
[1;32m    794[0m             [0mself[0m[0;34m.[0m[0m_original_iterator[0m [0;34m=[0m [0;32mNone[0m[0;34m[0m[0;34m[0m[0m

[0;32m~/.local/lib/python3.8/site-packages/joblib/parallel.py[0m in [0;36mdispatch_one_batch[0;34m(self, iterator)[0m
[1;32m    857[0m                 [0;32mreturn[0m [0;32mFalse[0m[0;34m[0m[0;34m[0m[0m
[1;32m    858[0m             [0;32melse[0m[0;34m:[0m[0;34m[0m[0;34m[0m[0m
[0;32m--> 859[0;31m                 [0mself[0m[0;34m.[0m[0m_dispatch[0m[0;34m([0m[0mtasks[0m[0;34m)[0m[0;34m[0m[0;34m[0m[0m
[0m[1;32m    860[0m                 [0;32mreturn[0m [0;32mTrue[0m[0;34m[0m[0;34m[0m[0m
[1;32m    861[0m [0;34m[0m[0m

[0;32m~/.local/lib/python3.8/site-packages/joblib/parallel.py[0m in [0;36m_dispatch[0;34m(self, batch)[0m
[1;32m    775[0m         [0;32mwith[0m [0mself[0m[0;34m.[0m[0m_lock[0m[0;34m:[0m[0;34m[0m[0;34m[0m[0m
[1;32m    776[0m             [0mjob_idx[0m [0;34m=[0m [0mlen[0m[0;34m([0m[0mself[0m[0;34m.[0m[0m_jobs[0m[0;34m)[0m[0;34m[0m[0;34m[0m[0m
[0;32m--> 777[0;31m             [0mjob[0m [0;34m=[0m [0mself[0m[0;34m.[0m[0m_backend[0m[0;34m.[0m[0mapply_async[0m[0;34m([0m[0mbatch[0m[0;34m,[0m [0mcallback[0m[0;34m=[0m[0mcb[0m[0;34m)[0m[0;34m[0m[0;34m[0m[0m
[0m[1;32m    778[0m             [0;31m# A job can complete so quickly than its callback is[0m[0;34m[0m[0;34m[0m[0;34m[0m[0m
[1;32m    779[0m             [0;31m# called before we get here, causing self._jobs to[0m[0;34m[0m[0;34m[0m[0;34m[0m[0m

[0;32m~/.local/lib/python3.8/site-packages/joblib/_parallel_backends.py[0m in [0;36mapply_async[0;34m(self, func, callback)[0m
[1;32m    529[0m     [0;32mdef[0m [0mapply_async[0m[0;34m([0m[0mself[0m[0;34m,[0m [0mfunc[0m[0;34m,[0m [0mcallback[0m[0;34m=[0m[0;32mNone[0m[0;34m)[0m[0;34m:[0m[0;34m[0m[0;34m[0m[0m
[1;32m    530[0m         [0;34m"""Schedule a func to be run"""[0m[0;34m[0m[0;34m[0m[0m
[0;32m--> 531[0;31m         [0mfuture[0m [0;34m=[0m [0mself[0m[0;34m.[0m[0m_workers[0m[0;34m.[0m[0msubmit[0m[0;34m([0m[0mSafeFunction[0m[0;34m([0m[0mfunc[0m[0;34m)[0m[0;34m)[0m[0;34m[0m[0;34m[0m[0m
[0m[1;32m    532[0m         [0mfuture[0m[0;34m.[0m[0mget[0m [0;34m=[0m [0mfunctools[0m[0;34m.[0m[0mpartial[0m[0;34m([0m[0mself[0m[0;34m.[0m[0mwrap_future_result[0m[0;34m,[0m [0mfuture[0m[0;34m)[0m[0;34m[0m[0;34m[0m[0m
[1;32m    533[0m         [0;32mif[0m [0mcallback[0m [0;32mis[0m [0;32mnot[0m [0;32mNone[0m[0;34m:[0m[0;34m[0m[0;34m[0m[0m

[0;32m~/.local/lib/python3.8/site-packages/joblib/externals/loky/reusable_executor.py[0m in [0;36msubmit[0;34m(self, fn, *args, **kwargs)[0m
[1;32m    175[0m     [0;32mdef[0m [0msubmit[0m[0;34m([0m[0mself[0m[0;34m,[0m [0mfn[0m[0;34m,[0m [0;34m*[0m[0margs[0m[0;34m,[0m [0;34m**[0m[0mkwargs[0m[0;34m)[0m[0;34m:[0m[0;34m[0m[0;34m[0m[0m
[1;32m    176[0m         [0;32mwith[0m [0mself[0m[0;34m.[0m[0m_submit_resize_lock[0m[0;34m:[0m[0;34m[0m[0;34m[0m[0m
[0;32m--> 177[0;31m             return super(_ReusablePoolExecutor, self).submit(
[0m[1;32m    178[0m                 fn, *args, **kwargs)
[1;32m    179[0m [0;34m[0m[0m

[0;32m~/.local/lib/python3.8/site-packages/joblib/externals/loky/process_executor.py[0m in [0;36msubmit[0;34m(self, fn, *args, **kwargs)[0m
[1;32m   1100[0m         [0;32mwith[0m [0mself[0m[0;34m.[0m[0m_flags[0m[0;34m.[0m[0mshutdown_lock[0m[0;34m:[0m[0;34m[0m[0;34m[0m[0m
[1;32m   1101[0m             [0;32mif[0m [0mself[0m[0;34m.[0m[0m_flags[0m[0;34m.[0m[0mbroken[0m [0;32mis[0m [0;32mnot[0m [0;32mNone[0m[0;34m:[0m[0;34m[0m[0;34m[0m[0m
[0;32m-> 1102[0;31m                 [0;32mraise[0m [0mself[0m[0;34m.[0m[0m_flags[0m[0;34m.[0m[0mbroken[0m[0;34m[0m[0;34m[0m[0m
[0m[1;32m   1103[0m             [0;32mif[0m [0mself[0m[0;34m.[0m[0m_flags[0m[0;34m.[0m[0mshutdown[0m[0;34m:[0m[0;34m[0m[0;34m[0m[0m
[1;32m   1104[0m                 raise ShutdownExecutorError(

[0;31mTerminatedWorkerError[0m: A worker process managed by the executor was unexpectedly terminated. This could be caused by a segmentation fault while calling the function or by an excessive memory usage causing the Operating System to kill the worker.

The exit codes of the workers are {SIGSEGV(-11), SIGSEGV(-11)}
TerminatedWorkerError: A worker process managed by the executor was unexpectedly terminated. This could be caused by a segmentation fault while calling the function or by an excessive memory usage causing the Operating System to kill the worker.

The exit codes of the workers are {SIGSEGV(-11), SIGSEGV(-11)}

